{
  "tracks": {
    "href": "https://api.spotify.com/v1/search?query=coding&type=track&market=US&locale=en-US%2Cen%3Bq%3D0.5&offset=0&limit=5",
    "items": [
      {
        "album": {
          "album_type": "album",
          "artists": [
            {
              "external_urls": {
                "spotify": "https://open.spotify.com/artist/24eDfi2MSYo3A87hCcgpIL"
              },
              "href": "https://api.spotify.com/v1/artists/24eDfi2MSYo3A87hCcgpIL",
              "id": "24eDfi2MSYo3A87hCcgpIL",
              "name": "Ludwig Göransson",
              "type": "artist",
              "uri": "spotify:artist:24eDfi2MSYo3A87hCcgpIL"
            }
          ],
          "external_urls": {
            "spotify": "https://open.spotify.com/album/0rwbMKjNkp4ehQTwf9V2Jk"
          },
          "href": "https://api.spotify.com/v1/albums/0rwbMKjNkp4ehQTwf9V2Jk",
          "id": "0rwbMKjNkp4ehQTwf9V2Jk",
          "images": [
            {
              "height": 640,
              "url": "https://i.scdn.co/image/ab67616d0000b273af634982d9b15de3c77f7dd9",
              "width": 640
            },
            {
              "height": 300,
              "url": "https://i.scdn.co/image/ab67616d00001e02af634982d9b15de3c77f7dd9",
              "width": 300
            },
            {
              "height": 64,
              "url": "https://i.scdn.co/image/ab67616d00004851af634982d9b15de3c77f7dd9",
              "width": 64
            }
          ],
          "is_playable": true,
          "name": "Oppenheimer (Original Motion Picture Soundtrack)",
          "release_date": "2023-07-21",
          "release_date_precision": "day",
          "total_tracks": 24,
          "type": "album",
          "uri": "spotify:album:0rwbMKjNkp4ehQTwf9V2Jk"
        },
        "artists": [
          {
            "external_urls": {
              "spotify": "https://open.spotify.com/artist/24eDfi2MSYo3A87hCcgpIL"
            },
            "href": "https://api.spotify.com/v1/artists/24eDfi2MSYo3A87hCcgpIL",
            "id": "24eDfi2MSYo3A87hCcgpIL",
            "name": "Ludwig Göransson",
            "type": "artist",
            "uri": "spotify:artist:24eDfi2MSYo3A87hCcgpIL"
          }
        ],
        "disc_number": 1,
        "duration_ms": 110160,
        "explicit": false,
        "external_ids": {
          "isrc": "USQ4E2204391"
        },
        "external_urls": {
          "spotify": "https://open.spotify.com/track/4VnDmjYCZkyeqeb0NIKqdA"
        },
        "href": "https://api.spotify.com/v1/tracks/4VnDmjYCZkyeqeb0NIKqdA",
        "id": "4VnDmjYCZkyeqeb0NIKqdA",
        "is_local": false,
        "is_playable": true,
        "name": "Can You Hear The Music",
        "popularity": 70,
        "preview_url": "https://p.scdn.co/mp3-preview/fb4c33bf9ac3841c29fc7447533e1ae1156295dd?cid=cfe923b2d660439caf2b557b21f31221",
        "track_number": 2,
        "type": "track",
        "uri": "spotify:track:4VnDmjYCZkyeqeb0NIKqdA"
      },
      {
        "album": {
          "album_type": "single",
          "artists": [
            {
              "external_urls": {
                "spotify": "https://open.spotify.com/artist/0dgJbQ0bKPyUXco8hEXN7X"
              },
              "href": "https://api.spotify.com/v1/artists/0dgJbQ0bKPyUXco8hEXN7X",
              "id": "0dgJbQ0bKPyUXco8hEXN7X",
              "name": "Øneheart",
              "type": "artist",
              "uri": "spotify:artist:0dgJbQ0bKPyUXco8hEXN7X"
            },
            {
              "external_urls": {
                "spotify": "https://open.spotify.com/artist/6SdlxyPsQ3B0yYncFmDULP"
              },
              "href": "https://api.spotify.com/v1/artists/6SdlxyPsQ3B0yYncFmDULP",
              "id": "6SdlxyPsQ3B0yYncFmDULP",
              "name": "reidenshi",
              "type": "artist",
              "uri": "spotify:artist:6SdlxyPsQ3B0yYncFmDULP"
            }
          ],
          "external_urls": {
            "spotify": "https://open.spotify.com/album/4NRsGHlWBTl4rdLcq8CKcH"
          },
          "href": "https://api.spotify.com/v1/albums/4NRsGHlWBTl4rdLcq8CKcH",
          "id": "4NRsGHlWBTl4rdLcq8CKcH",
          "images": [
            {
              "height": 640,
              "url": "https://i.scdn.co/image/ab67616d0000b273ed50c8fe9503fd8d73d82f9f",
              "width": 640
            },
            {
              "height": 300,
              "url": "https://i.scdn.co/image/ab67616d00001e02ed50c8fe9503fd8d73d82f9f",
              "width": 300
            },
            {
              "height": 64,
              "url": "https://i.scdn.co/image/ab67616d00004851ed50c8fe9503fd8d73d82f9f",
              "width": 64
            }
          ],
          "is_playable": true,
          "name": "snowfall",
          "release_date": "2022-01-14",
          "release_date_precision": "day",
          "total_tracks": 1,
          "type": "album",
          "uri": "spotify:album:4NRsGHlWBTl4rdLcq8CKcH"
        },
        "artists": [
          {
            "external_urls": {
              "spotify": "https://open.spotify.com/artist/0dgJbQ0bKPyUXco8hEXN7X"
            },
            "href": "https://api.spotify.com/v1/artists/0dgJbQ0bKPyUXco8hEXN7X",
            "id": "0dgJbQ0bKPyUXco8hEXN7X",
            "name": "Øneheart",
            "type": "artist",
            "uri": "spotify:artist:0dgJbQ0bKPyUXco8hEXN7X"
          },
          {
            "external_urls": {
              "spotify": "https://open.spotify.com/artist/6SdlxyPsQ3B0yYncFmDULP"
            },
            "href": "https://api.spotify.com/v1/artists/6SdlxyPsQ3B0yYncFmDULP",
            "id": "6SdlxyPsQ3B0yYncFmDULP",
            "name": "reidenshi",
            "type": "artist",
            "uri": "spotify:artist:6SdlxyPsQ3B0yYncFmDULP"
          }
        ],
        "disc_number": 1,
        "duration_ms": 124065,
        "explicit": false,
        "external_ids": {
          "isrc": "QM3DF2191341"
        },
        "external_urls": {
          "spotify": "https://open.spotify.com/track/4xF4ZBGPZKxECeDFrqSAG4"
        },
        "href": "https://api.spotify.com/v1/tracks/4xF4ZBGPZKxECeDFrqSAG4",
        "id": "4xF4ZBGPZKxECeDFrqSAG4",
        "is_local": false,
        "is_playable": true,
        "name": "snowfall",
        "popularity": 82,
        "preview_url": "https://p.scdn.co/mp3-preview/55637da466ac58e5a760924fbb058e27d23c7c96?cid=cfe923b2d660439caf2b557b21f31221",
        "track_number": 1,
        "type": "track",
        "uri": "spotify:track:4xF4ZBGPZKxECeDFrqSAG4"
      },
      {
        "album": {
          "album_type": "album",
          "artists": [
            {
              "external_urls": {
                "spotify": "https://open.spotify.com/artist/1HxXNvsraqrsgfmju1yKk8"
              },
              "href": "https://api.spotify.com/v1/artists/1HxXNvsraqrsgfmju1yKk8",
              "id": "1HxXNvsraqrsgfmju1yKk8",
              "name": "Modern Baseball",
              "type": "artist",
              "uri": "spotify:artist:1HxXNvsraqrsgfmju1yKk8"
            }
          ],
          "external_urls": {
            "spotify": "https://open.spotify.com/album/0XvjdaLFvJ510mcmVXriw7"
          },
          "href": "https://api.spotify.com/v1/albums/0XvjdaLFvJ510mcmVXriw7",
          "id": "0XvjdaLFvJ510mcmVXriw7",
          "images": [
            {
              "height": 640,
              "url": "https://i.scdn.co/image/ab67616d0000b2732b6d651ad0167b0cf8024ba5",
              "width": 640
            },
            {
              "height": 300,
              "url": "https://i.scdn.co/image/ab67616d00001e022b6d651ad0167b0cf8024ba5",
              "width": 300
            },
            {
              "height": 64,
              "url": "https://i.scdn.co/image/ab67616d000048512b6d651ad0167b0cf8024ba5",
              "width": 64
            }
          ],
          "is_playable": true,
          "name": "Holy Ghost",
          "release_date": "2016-05-13",
          "release_date_precision": "day",
          "total_tracks": 11,
          "type": "album",
          "uri": "spotify:album:0XvjdaLFvJ510mcmVXriw7"
        },
        "artists": [
          {
            "external_urls": {
              "spotify": "https://open.spotify.com/artist/1HxXNvsraqrsgfmju1yKk8"
            },
            "href": "https://api.spotify.com/v1/artists/1HxXNvsraqrsgfmju1yKk8",
            "id": "1HxXNvsraqrsgfmju1yKk8",
            "name": "Modern Baseball",
            "type": "artist",
            "uri": "spotify:artist:1HxXNvsraqrsgfmju1yKk8"
          }
        ],
        "disc_number": 1,
        "duration_ms": 89223,
        "explicit": false,
        "external_ids": {
          "isrc": "QMCE71300900"
        },
        "external_urls": {
          "spotify": "https://open.spotify.com/track/1b7WjVIDCEMWVqltoeOGwb"
        },
        "href": "https://api.spotify.com/v1/tracks/1b7WjVIDCEMWVqltoeOGwb",
        "id": "1b7WjVIDCEMWVqltoeOGwb",
        "is_local": false,
        "is_playable": true,
        "name": "Coding These To Lukens",
        "popularity": 33,
        "preview_url": "https://p.scdn.co/mp3-preview/e074d2fa0bf5940944892df377ba129ef6974d9f?cid=cfe923b2d660439caf2b557b21f31221",
        "track_number": 7,
        "type": "track",
        "uri": "spotify:track:1b7WjVIDCEMWVqltoeOGwb"
      },
      {
        "album": {
          "album_type": "album",
          "artists": [
            {
              "external_urls": {
                "spotify": "https://open.spotify.com/artist/1fKuG76EpsdK00PbNTKnDO"
              },
              "href": "https://api.spotify.com/v1/artists/1fKuG76EpsdK00PbNTKnDO",
              "id": "1fKuG76EpsdK00PbNTKnDO",
              "name": "Hello Poke",
              "type": "artist",
              "uri": "spotify:artist:1fKuG76EpsdK00PbNTKnDO"
            }
          ],
          "external_urls": {
            "spotify": "https://open.spotify.com/album/3c1sM3QfMOBQGuZyUqg6Im"
          },
          "href": "https://api.spotify.com/v1/albums/3c1sM3QfMOBQGuZyUqg6Im",
          "id": "3c1sM3QfMOBQGuZyUqg6Im",
          "images": [
            {
              "height": 640,
              "url": "https://i.scdn.co/image/ab67616d0000b273459ecc87dfe335b60b857ca4",
              "width": 640
            },
            {
              "height": 300,
              "url": "https://i.scdn.co/image/ab67616d00001e02459ecc87dfe335b60b857ca4",
              "width": 300
            },
            {
              "height": 64,
              "url": "https://i.scdn.co/image/ab67616d00004851459ecc87dfe335b60b857ca4",
              "width": 64
            }
          ],
          "is_playable": true,
          "name": "Dreaming Cat",
          "release_date": "2023-10-27",
          "release_date_precision": "day",
          "total_tracks": 15,
          "type": "album",
          "uri": "spotify:album:3c1sM3QfMOBQGuZyUqg6Im"
        },
        "artists": [
          {
            "external_urls": {
              "spotify": "https://open.spotify.com/artist/1fKuG76EpsdK00PbNTKnDO"
            },
            "href": "https://api.spotify.com/v1/artists/1fKuG76EpsdK00PbNTKnDO",
            "id": "1fKuG76EpsdK00PbNTKnDO",
            "name": "Hello Poke",
            "type": "artist",
            "uri": "spotify:artist:1fKuG76EpsdK00PbNTKnDO"
          }
        ],
        "disc_number": 1,
        "duration_ms": 88666,
        "explicit": false,
        "external_ids": {
          "isrc": "ITQ582300360"
        },
        "external_urls": {
          "spotify": "https://open.spotify.com/track/2oCadMBRDwhjE0dAzsMy4u"
        },
        "href": "https://api.spotify.com/v1/tracks/2oCadMBRDwhjE0dAzsMy4u",
        "id": "2oCadMBRDwhjE0dAzsMy4u",
        "is_local": false,
        "is_playable": true,
        "name": "Coding Night",
        "popularity": 13,
        "preview_url": "https://p.scdn.co/mp3-preview/ec86d3c2295dfdaf598064af6cf5893fc59acc56?cid=cfe923b2d660439caf2b557b21f31221",
        "track_number": 4,
        "type": "track",
        "uri": "spotify:track:2oCadMBRDwhjE0dAzsMy4u"
      },
      {
        "album": {
          "album_type": "album",
          "artists": [
            {
              "external_urls": {
                "spotify": "https://open.spotify.com/artist/59J28ff7voX9ktFiUI3T2v"
              },
              "href": "https://api.spotify.com/v1/artists/59J28ff7voX9ktFiUI3T2v",
              "id": "59J28ff7voX9ktFiUI3T2v",
              "name": "Lofi Gemini",
              "type": "artist",
              "uri": "spotify:artist:59J28ff7voX9ktFiUI3T2v"
            }
          ],
          "external_urls": {
            "spotify": "https://open.spotify.com/album/5FJw6Z4DkRtgZMtVrby4UZ"
          },
          "href": "https://api.spotify.com/v1/albums/5FJw6Z4DkRtgZMtVrby4UZ",
          "id": "5FJw6Z4DkRtgZMtVrby4UZ",
          "images": [
            {
              "height": 640,
              "url": "https://i.scdn.co/image/ab67616d0000b2736cee5d9feca966bdc8bbc2b8",
              "width": 640
            },
            {
              "height": 300,
              "url": "https://i.scdn.co/image/ab67616d00001e026cee5d9feca966bdc8bbc2b8",
              "width": 300
            },
            {
              "height": 64,
              "url": "https://i.scdn.co/image/ab67616d000048516cee5d9feca966bdc8bbc2b8",
              "width": 64
            }
          ],
          "is_playable": true,
          "name": "Lofi Coding Focus",
          "release_date": "2023-04-14",
          "release_date_precision": "day",
          "total_tracks": 20,
          "type": "album",
          "uri": "spotify:album:5FJw6Z4DkRtgZMtVrby4UZ"
        },
        "artists": [
          {
            "external_urls": {
              "spotify": "https://open.spotify.com/artist/59J28ff7voX9ktFiUI3T2v"
            },
            "href": "https://api.spotify.com/v1/artists/59J28ff7voX9ktFiUI3T2v",
            "id": "59J28ff7voX9ktFiUI3T2v",
            "name": "Lofi Gemini",
            "type": "artist",
            "uri": "spotify:artist:59J28ff7voX9ktFiUI3T2v"
          }
        ],
        "disc_number": 1,
        "duration_ms": 120000,
        "explicit": false,
        "external_ids": {
          "isrc": "GBRKQ2338673"
        },
        "external_urls": {
          "spotify": "https://open.spotify.com/track/6gaIzqyPPGfYnKp54LQXI4"
        },
        "href": "https://api.spotify.com/v1/tracks/6gaIzqyPPGfYnKp54LQXI4",
        "id": "6gaIzqyPPGfYnKp54LQXI4",
        "is_local": false,
        "is_playable": true,
        "name": "Programming Music",
        "popularity": 16,
        "preview_url": "https://p.scdn.co/mp3-preview/92ba46ad23361118be3c54f099d797d5602f83ab?cid=cfe923b2d660439caf2b557b21f31221",
        "track_number": 2,
        "type": "track",
        "uri": "spotify:track:6gaIzqyPPGfYnKp54LQXI4"
      }
    ],
    "limit": 5,
    "next": "https://api.spotify.com/v1/search?query=coding&type=track&market=US&locale=en-US%2Cen%3Bq%3D0.5&offset=5&limit=5",
    "offset": 0,
    "previous": null,
    "total": 870
  }
}